         w __deregister_frame_info
         w __register_frame_info
         w _ITM_deregisterTMCloneTable
         w _ITM_registerTMCloneTable
         w _Jv_RegisterClasses
00000000 b .LANCHOR1
00000000 b _TLS_MODULE_BASE_
00000000 a shift
00000000 00002000 b tmp_buffer.6669
00001ff8 b .LANCHOR2
00002000 00000401 b __fixedpath
00002404 00000802 b __utf16path
00002c08 00000802 b __utf16path_old.6740
00100000 T __start__
00100000 T _start
00100008 T __service_ptr
0010000c T __apt_appid
00100010 T __heap_size
00100014 T __linear_heap_size
00100018 T __system_arglist
0010001c T __system_runflags
00100020 t startup
00100058 t ClearMem
0010006c t ClrLoop
00100094 T _init
001000ac t deregister_tm_clones
001000dc t register_tm_clones
00100114 t __do_global_dtors_aux
00100158 t frame_dummy
001001b4 T initSystem
001001f8 T __ctru_exit
00100218 00000004 W __aeabi_idiv0
00100218 00000004 W __aeabi_ldiv0
00100228 00000390 T strcmp
001005c0 00000008 t null_write
001005c8 00000018 T setDefaultDevice
001005e0 000000bc T FindDevice
0010069c 0000002c T RemoveDevice
001006c8 00000098 T AddDevice
00100760 00000024 T GetDeviceOpTab
00100784 00000070 T _sbrk_r
001007f4 000001bc T _concatenate_path
001009b0 00000154 T chdir
00100b04 000000a0 T getcwd
00100ba4 00000018 T __libc_lock_init
00100bbc 00000018 T __libc_lock_acquire
00100bd4 00000024 T __libc_lock_try_acquire
00100bf8 00000018 T __libc_lock_release
00100c10 00000018 T __libc_lock_close
00100c28 00000018 T __libc_lock_init_recursive
00100c40 00000018 T __libc_lock_acquire_recursive
00100c58 00000024 T __libc_lock_try_acquire_recursive
00100c7c 00000018 T __libc_lock_release_recursive
00100c94 00000018 T __libc_lock_close_recursive
00100cac 00000028 T __getreent
00100cd4 t .udivsi3_skip_div0_test
00100cd4 T __aeabi_uidiv
00100cd4 000001ec T __udivsi3
00100ec0 00000020 T __aeabi_uidivmod
00100ee0 000000c4 T main
00100fa4 0000000c T sf2d_set_3D
00100fb0 0000009c T sf2d_start_frame_target
0010104c 00000038 T sf2d_start_frame
00101084 00000004 T sf2d_end_frame
00101088 00000040 T sf2d_pool_memalign
001010c8 00000038 T sf2d_set_clear_color
00101100 000001ac t sf2d_init_advanced.part.0
001012ac 00000028 T sf2d_init
001012d4 00000094 T sf2d_setup_env_internal
00101368 000000bc T sf2d_draw_rectangle
00101424 0000009c T sf2d_create_rendertarget
001014c0 00000014 T sf2d_clear_target
001014d4 00000028 T AttrInfo_Init
001014fc 000000a4 T AttrInfo_AddLoader
001015a0 00000024 T C3D_GetAttrInfo
001015c4 00000080 T C3Di_AttrInfoBind
00101644 00000088 t C3Di_AptEventHook
001016cc 00000168 T C3D_Init
00101834 00000098 T C3D_SetViewport
001018cc 00000580 T C3Di_UpdateContext
00101e4c 000000d4 T C3D_BindProgram
00101f20 00000020 T BufInfo_Init
00101f40 00000084 T BufInfo_Add
00101fc4 00000024 T C3D_GetBufInfo
00101fe8 00000048 T C3Di_BufInfoBind
00102030 00000148 T C3D_DrawArrays
00102178 0000003c T C3D_DepthMap
001021b4 0000001c T C3D_CullFace
001021d0 0000003c T C3D_StencilTest
0010220c 00000024 T C3D_StencilOp
00102230 0000001c T C3D_BlendingColor
0010224c 00000028 T C3D_DepthTest
00102274 00000028 T C3D_AlphaTest
0010229c 00000050 T C3D_AlphaBlend
001022ec 00000030 T C3D_FragOpMode
0010231c 0000011c T C3Di_EffectBind
00102438 000000b4 T C3D_ImmSendAttrib
001024ec 000000a4 T C3D_RenderBufInit
00102590 00000080 T C3D_RenderBufClearAsync
00102610 00000028 T C3D_RenderBufTransferAsync
00102638 00000038 T C3D_RenderBufBind
00102670 00000168 T C3Di_RenderBufBind
001027d8 00000018 T C3D_RenderBufDelete
001027f0 00000040 t C3Di_RenderQueueWaitDone
00102830 00000078 t performTransfer.part.0
001028a8 00000050 t transferTarget
001028f8 00000024 t onVBlank1
0010291c 0000008c t onVBlank0
001029a8 0000003c t performClear.part.2
001029e4 0000004c t clearTarget
00102a30 000000c0 t updateFrameQueue.part.4
00102af0 000000e0 t onRenderFinish
00102bd0 00000018 t onClearDone.part.6
00102bd0 00000018 t onTransferFinish.part.5
00102be8 000000b0 t onTransferFinish
00102c98 00000064 t onClearDone
00102cfc 0000005c t checkRenderQueueInit.part.7
00102d58 00000064 T C3D_FrameBegin
00102dbc 00000078 T C3D_FrameDrawOn
00102e34 000000e0 T C3D_RenderTargetCreate
00102f14 0000007c T C3D_RenderTargetDelete
00102f90 00000084 t C3Di_RenderQueueExit
00103014 00000050 T C3D_RenderTargetSetClear
00103064 00000058 T C3D_RenderTargetSetOutput
001030bc 00000034 T TexEnv_Init
001030f0 00000034 T C3D_GetTexEnv
00103124 00000024 T C3Di_TexEnvBind
00103148 000000b8 T C3D_TexInitVRAM
00103200 0000003c T C3D_TexDelete
0010323c 000002ac T C3D_UpdateUniforms
001034e8 000000c0 T C3Di_DirtyUniforms
001035a8 000000e4 T C3Di_LoadShaderUniforms
0010368c 00000028 T C3Di_ClearShaderUniforms
001036b4 000000c8 T Mtx_OrthoTilt
0010377c 00000024 t addrMapNodeComparator(rbtree_node const*, rbtree_node const*)
001037a0 00000004 t addrMapNodeDestructor(rbtree_node*)
001037a4 00000140 T linearMemAlign
001038e4 00000008 T linearAlloc
001038ec 00000050 T linearFree
0010393c 000000a0 T MemPool::CoalesceRight(MemBlock*)
001039dc 0000018c T MemPool::Allocate(MemChunk&, unsigned long, int)
00103b68 00000104 T MemPool::Deallocate(MemChunk const&)
00103c6c 00000024 t addrMapNodeComparator(rbtree_node const*, rbtree_node const*)
00103c90 00000004 t addrMapNodeDestructor(rbtree_node*)
00103c94 00000130 T vramMemAlign
00103dc4 00000008 T vramAlloc
00103dcc 00000050 T vramFree
00103e1c 0000008c t gfxSetFramebufferInfo.part.0
00103ea8 00000010 T gfxSet3D
00103eb8 00000010 T gfxIs3D
00103ec8 00000018 T __get_bytes_per_pixel
00103ee0 00000174 T gfxSetScreenFormat
00104054 00000070 T gfxSetFramebufferInfo
001040c4 00000088 T gfxWriteFramebufferInfo
0010414c 000001fc T gfxInit
00104348 00000010 T gfxInitDefault
00104358 000000e0 T gfxExit
00104438 000000b0 T gfxGetFramebuffer
001044e8 000000cc T gfxFlushBuffers
001045b4 00000070 T gfxConfigScreen
00104624 00000020 T gfxSwapBuffers
00104644 00000058 t getSysTime
0010469c 0000004c T osConvertVirtToPhys
001046e8 00000024 T osGetMemRegionUsed
00104710 000000f4 T __libctru_gtod
00104808 00000078 T osGetTime
00104880 00000034 T __ctru_speedup_config
001048b4 0000002c T GPUCMD_SetBuffer
001048e0 000000e4 T GPUCMD_Add
001049c4 00000040 T f32tof24
00104a04 00000040 T f32tof31
00104a44 00000054 T GX_ProcessCommandList
00104a98 00000060 T GX_MemoryFill
00104af8 00000050 T GX_DisplayTransfer
00104b48 0000023c T shaderInstanceInit
00104d84 00000038 T shaderInstanceFree
00104dbc 00000018 T shaderInstanceGetUniformLocation
00104dd4 00000018 T shaderProgramInit
00104dec 0000006c T shaderProgramSetVsh
00104e58 000008a4 T shaderProgramConfigure
001056fc 00000080 T DVLE_GetUniformRegister
0010577c 000001f0 T DVLE_GenerateOutmap
0010596c 000001d8 T DVLB_ParseFile
00105b44 00000004 W _aptDebug
00105b48 0000012c T aptSendCommand
00105c74 0000003c t aptExitProcess
00105cb0 00000038 T aptHook
00105ce8 0000004c T APT_InquireNotification
00105d34 00000198 t aptEventHandler
00105ecc 00000074 T APT_AppletUtility
00105f40 000000b0 T aptSetSleepAllowed
00105ff0 000000b4 T APT_GlanceParameter
001060a4 000000c0 T APT_ReceiveParameter
00106164 000000a8 t aptReceiveParameter.constprop.1
00106210 000001d8 t aptScreenTransfer
001063e8 00000224 t aptWaitForWakeUp
0010660c 00000070 T APT_CancelParameter
0010667c 0000021c T aptInit
00106898 00000088 t aptClearParamQueue
00106920 00000208 T aptMainLoop
00106b28 00000148 T aptExit
00106c70 00000070 T APT_CheckNew3DS
00106ce0 00000154 t gspEventThreadMain
00106e34 00000074 T gspInit
00106ea8 0000003c T gspExit
00106ee4 0000002c T gspSetEventCallback
00106f10 00000084 T gspInitEventHandler
00106f94 00000030 T gspExitEventHandler
00106fc4 00000044 T gspWaitForEvent
00107008 00000064 T gspWaitForAnyEvent
0010706c 00000128 T gspSubmitGxCommand
00107194 0000006c T GSPGPU_SetBufferSwap
00107200 0000004c T GSPGPU_FlushDataCache
0010724c 00000034 T GSPGPU_SetLcdForceBlack
00107280 00000064 T GSPGPU_RegisterInterruptRelayQueue
001072e4 0000002c T GSPGPU_UnregisterInterruptRelayQueue
00107310 00000048 T GSPGPU_AcquireRight
00107358 0000002c T GSPGPU_ReleaseRight
00107384 00000080 T GSPGPU_ImportDisplayCaptureInfo
00107404 0000002c T GSPGPU_SaveVramSysArea
00107430 0000002c T GSPGPU_RestoreVramSysArea
0010745c 000000d8 T hidExit
00107534 00000238 T hidScanInput
0010776c 00000010 T hidKeysDown
0010777c 00000018 T hidTouchRead
00107794 00000018 T hidCircleRead
001077ac 00000090 T HIDUSER_GetHandles
0010783c 00000184 T hidInit
001079c0 000000b0 T irrstScanInput
00107a70 0000001c T irrstKeysHeld
00107a8c 00000050 T IRRST_GetHandles
00107adc 00000148 T irrstInit
00107c24 0000002c T IRRST_Shutdown
00107c50 000000b0 T irrstExit
00107d00 00000070 T ptmSysmInit
00107d70 00000034 T ptmSysmExit
00107da4 00000034 T PTMSYSM_ConfigureNew3DSCPU
00107dd8 00000070 T rbtree_find
00107e48 00000014 T rbtree_init
00107e5c 000001d4 t do_insert
00108030 00000008 T rbtree_insert
00108038 0000035c T rbtree_remove
00108394 000000ac T rbtree_rotate
00108440 00000058 t osGetMemRegionSize
00108498 00000124 W __system_allocateHeaps
001085bc 000000f4 T __system_initArgv
001086b0 00000038 W __libctru_init
001086e8 00000030 t __ctru_get_reent
00108718 000000e8 T __system_initSyscalls
00108800 T svcControlMemory
00108820 T svcExitProcess
00108828 T svcCreateThread
00108848 T svcExitThread
00108850 T svcSleepThread
00108858 T svcReleaseMutex
00108860 T svcCreateEvent
00108874 T svcSignalEvent
0010887c T svcClearEvent
00108884 T svcMapMemoryBlock
0010888c T svcUnmapMemoryBlock
00108894 T svcCreateAddressArbiter
001088a8 T svcArbitrateAddress
001088c0 T svcCloseHandle
001088c8 T svcWaitSynchronization
001088d0 T svcWaitSynchronizationN
001088f8 T svcDuplicateHandle
0010890c T svcGetSystemTick
00108914 T svcGetSystemInfo
0010892c T svcConnectToPort
00108940 T svcSendSyncRequest
00108948 T svcBreak
00108950 00000024 t addrMapNodeComparator(rbtree_node const*, rbtree_node const*)
00108974 00000004 t addrMapNodeDestructor(rbtree_node*)
00108978 000000f4 T mappableAlloc
00108a6c 00000050 T mappableFree
00108abc 00000094 T envGetHandle
00108b50 0000004c T envDestroyHandles
00108b9c 00000050 T srvExit
00108bec 00000038 T srvRegisterClient
00108c24 00000070 T srvInit
00108c94 00000068 T srvGetServiceHandleDirect
00108cfc 00000038 T srvGetServiceHandle
00108d34 00000034 t LightLock_Unlock.part.1
00108d68 0000000c T __sync_init
00108d74 00000018 T __sync_fini
00108d8c 00000010 T __sync_get_arbiter
00108d9c 00000018 T LightLock_Init
00108db4 00000094 T LightLock_Lock
00108e48 00000034 T LightLock_TryLock
00108e7c 00000020 T LightLock_Unlock
00108e9c 00000024 T RecursiveLock_Init
00108ec0 00000030 T RecursiveLock_Lock
00108ef0 00000058 T RecursiveLock_TryLock
00108f48 00000038 T RecursiveLock_Unlock
00108f80 00000038 T LightEvent_Init
00108fb8 0000007c T LightEvent_Clear
00109034 000000dc T LightEvent_Signal
00109110 000000c8 T LightEvent_Wait
001091d8 000001c8 T threadCreate
001093a0 00000024 T threadJoin
001093c4 0000006c T threadExit
00109430 0000003c t _thread_begin
0010946c 0000008c T rbtree_node_next
001094f8 0000001c W __appExit
00109514 0000001c W __appInit
00109530 000000a4 W __libctru_exit
001095d4 00000010 t sdmc_link
001095e4 00000010 t sdmc_dirreset
001095f4 00000010 t sdmc_chmod
00109604 00000010 t sdmc_fchmod
00109614 00000024 t error_cmp
00109638 00000050 t sdmc_translate_error
00109688 00000034 t sdmc_fsync
001096bc 00000054 t sdmc_ftruncate
00109710 000000ac t sdmc_statvfs
001097bc 00000038 t sdmc_dirclose
001097f4 0000013c t sdmc_dirnext
00109930 00000034 t sdmc_close
00109964 00000074 t sdmc_fstat
001099d8 000000c0 t sdmc_seek
00109a98 0000008c t sdmc_read
00109b24 00000110 t sdmc_write_safe
00109c34 000001b4 t sdmc_utf16path
00109de8 00000074 t sdmc_rmdir
00109e5c 000000a8 t sdmc_diropen
00109f04 000000a0 t sdmc_chdir
00109fa4 00000098 t sdmc_mkdir
0010a03c 00000108 t sdmc_rename
0010a144 00000074 t sdmc_unlink
0010a1b8 00000108 t sdmc_stat
0010a2c0 00000188 t sdmc_open
0010a448 0000015c T sdmcInit
0010a5a4 00000054 T sdmcExit
0010a5f8 00000028 t fsSessionForArchive.part.0
0010a620 000000cc T fsInit
0010a6ec 00000038 T fsExit
0010a724 00000074 T fsExemptFromSession
0010a798 00000054 T fsUnexemptFromSession
0010a7ec 000000bc T FSUSER_OpenFile
0010a8a8 000000a4 T FSUSER_DeleteFile
0010a94c 000000e0 T FSUSER_RenameFile
0010aa2c 000000a4 T FSUSER_DeleteDirectory
0010aad0 000000bc T FSUSER_CreateFile
0010ab8c 000000ac T FSUSER_CreateDirectory
0010ac38 000000e0 T FSUSER_RenameDirectory
0010ad18 000000a4 T FSUSER_OpenDirectory
0010adbc 0000009c T FSUSER_OpenArchive
0010ae58 00000074 T FSUSER_CloseArchive
0010aecc 00000078 T FSUSER_GetSdmcArchiveResource
0010af44 00000064 T FSUSER_IsSdmcWritable
0010afa8 0000005c T FSFILE_Read
0010b004 00000064 T FSFILE_Write
0010b068 0000003c T FSFILE_GetSize
0010b0a4 0000002c T FSFILE_SetSize
0010b0d0 0000003c T FSFILE_Close
0010b10c 00000024 T FSFILE_Flush
0010b130 00000054 T FSDIR_Read
0010b184 0000003c T FSDIR_Close
0010b1c0 00000138 T decode_utf8
0010b2f8 000000e4 T utf16_to_utf8
0010b3dc 000000bc T utf8_to_utf16
0010b498 T __aeabi_read_tp
0010b4a4 00000060 T decode_utf16
0010b504 00000068 T encode_utf16
0010b56c 00000104 T encode_utf8
0010b670 00000078 T bsearch
0010b6e8 00000020 T calloc
0010b708 00000090 T _calloc_r
0010b798 0000003c T __libc_fini_array
0010b7d4 00000078 T __libc_init_array
0010b84c 00000020 T memalign
0010b86c 0000015c T _memalign_r
0010b9c8 00000018 T malloc
0010b9e0 00000018 T free
0010b9f8 000007a8 T _malloc_r
0010c1a0 000000f0 T memcpy
0010c290 000000f4 T memset
0010c384 0000000c T __malloc_lock
0010c390 0000000c T __malloc_unlock
0010c39c 0000005c T strlen
0010c3f8 000000a4 T strncat
0010c49c 000000e0 T strncpy
0010c57c 000000f8 T _malloc_trim_r
0010c674 000002e4 T _free_r
0010c958 0000015c T strchr
0010cab4 0000011c T strncmp
0010cbd0 0000005c T strnlen
0010cc2c 00000044 T strrchr
0010cc70 T _fini
0010d000 R shader_shbin
0010d14c R shader_shbin_end
0010d14c R shader_shbin_size
0010d150 00000003 r parm.11316
0010d154 00000004 r CSWTCH.7
0010d158 00000005 r colorFmtSizes
0010d160 00000004 r depthFmtSizes
0010d164 00000038 r CSWTCH.2
0010d19c 00000014 r CSWTCH.28
0010d1b0 00000008 r framebufferInfoSt
0010d1b8 0000000c r serviceNameTable.6245
0010d1c4 00000030 r error_table
0010d200 00000068 R dotab_stdnull
0010d268 00000003 R DIRECTORY_PARENT
0010d26c 00000002 R DIRECTORY_THIS
0010d270 00000002 R DIRECTORY_SEPARATOR
0010d318 00000101 R _ctype_
0010d41c r __EH_FRAME_BEGIN__
0010d41c R __exidx_end
0010d41c R __exidx_start
0010e000 00000004 d useTransform_desc
0010e004 00000004 d transform_desc
0010e008 00000004 d vblank_wait
0010e00c 00000004 d projection_desc
0010e010 00000001 d topFormat
0010e011 00000001 d botFormat
0010e014 00000008 d doubleBuf
0010e01c 00000004 d aptFlags
0010e020 00000004 d gspLastEvent
0010e024 W __stacksize__
0010e028 00000401 d __cwd
0010e42c 00000068 d sdmc_devoptab
0010e494 00000004 d defaultDevice
0010e498 00000040 D devoptab_list
0010e4d8 00001000 d _current_working_directory
0010f4d8 00000440 d impure_data
0010f918 00000004 D _impure_ptr
0010f91c 00000408 D __malloc_av_
0010fd24 00000004 D __malloc_trim_threshold
0010fd28 00000004 D __malloc_sbrk_base
0010fd2c 0000000c d __malloc_lock_object
0010fd38 00000004 D __ctype_ptr__
0010fd3c t __frame_dummy_init_array_entry
0010fd3c T __init_array_start
0010fd3c d __JCR_LIST__
0010fd3c B __preinit_array_end
0010fd3c B __preinit_array_start
0010fd3c D __tdata_lma
0010fd3c D __tdata_lma_end
0010fd3c D __TMC_END__
0010fd3c d __TMC_LIST__
0010fd40 t __do_global_dtors_aux_fini_array_entry
0010fd40 T __fini_array_start
0010fd40 T __init_array_end
0010fd44 T __bss_start__
0010fd44 T __fini_array_end
0010fd44 b completed.6505
0010fd48 b object.6510
0010fd60 00000004 b sf2d_initialized
0010fd64 00000004 b pool_addr
0010fd68 00000014 b shader
0010fd7c 00000004 b dvlb
0010fd80 00000004 b in_render
0010fd84 00000004 b pool_index
0010fd88 00000001 b cur_screen
0010fd89 00000001 b cur_side
0010fd8c 00000004 b targetTopLeft
0010fd90 00000004 b targetTopRight
0010fd94 00000004 b targetBottom
0010fd98 00000004 b frames
0010fda0 00000008 b last_time
0010fda8 00000004 b current_fps
0010fdac 00000004 b pool_size
0010fdb0 0000000c b hookCookie
0010fdbc 00000001 b queuedCount
0010fdc0 00000004 b transferQueue
0010fdc4 00000004 b clearQueue
0010fdc8 00000001 b inSafeTransfer
0010fdcc 0000000c b linkedTarget
0010fdd8 0000004c b temp.11971
0010fe24 00000001 b inSafeClear
0010fe25 00000001 b queueSwap
0010fe28 00000020 b queuedFrame
0010fe48 00000001 b queuedState
0010fe49 00000001 b inFrame
0010fe4c 00000004 b lastTarget
0010fe50 00000004 b firstTarget
0010fe54 00000018 b C3Di_ShaderFVecData
0010fe6c 000000c0 b C3Di_FVUnifEverDirty
0010ff2c 00000008 b C3Di_IVUnifEverDirty
0010ff34 00000008 b sLinearPool
0010ff3c 0000000c b sAddrMap
0010ff48 00000008 b sVramPool
0010ff50 0000000c b sAddrMap
0010ff5c 00000001 b enable3d
0010ff60 00000004 b screenAlloc
0010ff64 00000004 b screenFree
0010ff68 00000002 b currentBuffer
0010ff6c 00000001 V __ctru_speedup
0010ff70 00000004 b aptLockHandle
0010ff74 00000004 b serviceName.6244
0010ff78 0000000c b aptFirstHook
0010ff84 00000004 b aptMessageFunc
0010ff88 00000004 b aptMessageFuncData
0010ff8c 0000000c b aptEvents
0010ff98 00000001 b aptHomeButtonState
0010ff9c 00000008 b aptSleepEvent
0010ffa4 00001000 b aptParameters
00110fa4 00000004 b aptRefCount
00110fa8 00000004 b aptEventHandlerThread
00110fac 00000001 b flagInit.6595
00110fad 00000001 b flagValue.6596
00110fb0 00000001 b gspRunEvents
00110fb4 00000004 b gspEvent
00110fb8 00000004 b gspEventData
00110fbc 0000001c b gspEventCb
00110fd8 00000007 b gspEventCbOneShot
00110fe0 0000001c b gspEventCbData
00110ffc 00000038 b gspEvents
00111034 0000001c b gspEventCounts
00111050 00000004 b gspRefCount
00111054 00000004 b gspEventThread
00111058 00000004 b hidRefCount
0011105c 00000004 b kOld
00111060 00000004 b kHeld
00111064 00000004 b cPos
00111068 00000004 b tPos
0011106c 00000006 b aVec
00111074 00000006 b gRate
0011107c 00000004 b kDown
00111080 00000004 b kUp
00111084 00000004 b irrstRefCount
00111088 00000004 b kHeld
0011108c 00000004 b csPos
00111090 00000004 b ptmSysmRefCount
00111094 00000004 b ptmSysmHandle
00111098 b saved_stack
001110a0 00000008 b sMappablePool
001110a8 0000000c b sAddrMap
001110b4 00000004 b srvRefCount
001110b8 00000004 b srvHandle
001110bc 00000004 b arbiter
001110c0 00000008 b sdmcArchive
001110c8 00000001 b sdmcInitialised
001110d0 00000004 b fsuHandle
001110d4 00000004 b fsuRefCount
001110d8 00000080 b fsExemptArchives
00111158 00000004 b heap_start.5704
0011115c 00000004 B fake_heap_start
00111160 00000004 B fake_heap_end
00111164 00001000 b temp_cwd
00112164 00000038 B __syscalls
0011219c 00000004 B __malloc_max_total_mem
001121a0 00000004 B __malloc_max_sbrked_mem
001121a4 00000004 B __malloc_top_pad
001121a8 00000028 B __malloc_current_mallinfo
001121d0 00000278 B __C3D_Context
00112448 00000020 B C3D_IVUnif
00112468 000000c0 B C3D_FVUnifDirty
00112528 00000002 B C3D_BoolUnifsDirty
0011252c 00000008 B C3D_IVUnifDirty
00112534 00000004 B C3D_BoolUnifs
00112538 00000c00 B C3D_FVUnif
00113138 00000008 B gfxBottomFramebuffers
00113140 00000004 B gspSharedMemHandle
00113144 0000001c B bottomFramebufferInfo
00113160 00000004 B gspEvent
00113164 00000008 B gfxTopLeftFramebuffers
0011316c 00000008 B gfxTopRightFramebuffers
00113174 0000001c B topFramebufferInfo
00113190 00000001 B gfxThreadID
00113194 00000004 B gfxSharedMemory
00113198 00000004 B gfxTopFramebufferMaxSize
0011319c 00000004 B gfxBottomFramebufferMaxSize
001131a0 00000004 B gpuCmdBuf
001131a4 00000004 B gpuCmdBufOffset
001131a8 00000004 B gpuCmdBufSize
001131ac 00000004 B gxCmdBuf
001131b0 00000004 B gspGpuHandle
001131b4 00000004 B hidMemHandle
001131b8 00000004 B hidHandle
001131bc 00000004 B hidSharedMem
001131c0 00000014 B hidEvents
001131d4 00000004 B irrstHandle
001131d8 00000004 B irrstEvent
001131dc 00000004 B irrstMemHandle
001131e0 00000004 B irrstSharedMem
001131e4 00000004 B __ctru_heap_size
001131e8 00000004 B __ctru_linear_heap
001131ec 00000004 B __ctru_heap
001131f0 00000004 B __ctru_linear_heap_size
001131f4 00000004 B __system_argv
001131f8 00000004 B __system_argc
001131fc 00000004 B __system_retAddr
00113200 B __tls_start
0011660c B __bss_end__
0011660c A __end__
0011660c B __tls_end
